<?xml version="1.0" encoding="utf-8"?>
<!-- Generator: Adobe Illustrator 22.0.1, SVG Export Plug-In . SVG Version: 6.00 Build 0)  -->
<svg version="1.1" id="Слой_1" xmlns="http://www.w3.org/2000/svg" xmlns:xlink="http://www.w3.org/1999/xlink" x="0px" y="0px"
	 viewBox="0 0 10 10" style="enable-background:new 0 0 10 10;" xml:space="preserve">
<path d="M1.4160547,2.2624631v2.1377306h1.6506927v1.0917459H1.4160547v2.2455969H3.494947V8.832552H0.2131714V1.167448H3.494947
	v1.095015H1.4160547z M8.1168909,1.167448c1.1963453,0,1.7945175,0.6308591,1.7945175,1.8958466v0.993685
	c0,1.2617178-0.5981722,1.8925781-1.7912483,1.8925781H7.5481362v2.8797259H6.3452554V1.167448H8.1168909z M8.1201601,2.2624631
	H7.5481362v2.5986176h0.5720239c0.1961231,0,0.3432121-0.0555682,0.4412746-0.1667042
	c0.0980606-0.111136,0.14709-0.297452,0.14709-0.5622172V2.9848456c0-0.264765-0.0490294-0.451081-0.14709-0.5589485
	C8.4633722,2.3180301,8.3162832,2.2624631,8.1201601,2.2624631z"/>
</svg>
